{
  "iisSettings": {
    "windowsAuthentication": false,
    "anonymousAuthentication": true,
    "iisExpress": {
      "applicationUrl": "http://localhost:58758",
      "sslPort": 0
    }
  },
  "$schema": "http://json.schemastore.org/launchsettings.json",
  "profiles": {
    "IIS Express": {
      "commandName": "IISExpress",
      "launchBrowser": true,
      "launchUrl": "swagger",
      "environmentVariables": {
        "ASPNETCORE_ENVIRONMENT": "Development"
      }
    },
    "WSL 2": {
      "commandName": "WSL2",
      "launchBrowser": true,
      "launchUrl": "http://localhost:5000/swagger",
      "environmentVariables": {
        "ASPNETCORE_URLS": "http://localhost:5000",
        "ASPNETCORE_ENVIRONMENT": "Development"
      },
      "distributionName": ""
    },
    "Docker": {
      "commandName": "Docker",
      "launchBrowser": true,
      "launchUrl": "{Scheme}://{ServiceHost}:{ServicePort}/swagger",
      "publishAllPorts": true
    }
  }
}